Proyecto/src/Transmit/testbench.vcd
$date
	Mon Nov 28 23:20:08 2022
$end
$version
	Icarus Verilog
$end
$timescale
	1s
$end
$scope module encode_8b10b $end
$var wire 1 ! NAO $end
$var wire 1 " NBO $end
$var wire 1 # NCO $end
$var wire 1 $ NDO $end
$var wire 1 % NEO $end
$var wire 1 & NIO $end
$var wire 1 ' ab $end
$var wire 1 ( b_a $end
$var wire 1 ) b_b $end
$var wire 1 * b_c $end
$var wire 1 + b_d $end
$var wire 1 , b_e $end
$var wire 1 - b_f $end
$var wire 1 . b_i $end
$var wire 1 / b_j $end
$var wire 1 0 cd $end
$var wire 1 1 control $end
$var wire 8 2 eight_bit_bus [7:0] $end
$var wire 1 3 forbid_comb $end
$var wire 1 4 l04 $end
$var wire 1 5 l13 $end
$var wire 1 6 l22 $end
$var wire 1 7 l31 $end
$var wire 1 8 l40 $end
$var wire 1 9 nd1s4 $end
$var wire 1 : nd1s6 $end
$var wire 1 ; ndos4 $end
$var wire 1 < ndos6 $end
$var wire 1 = parity_check $end
$var wire 1 > pd1s4 $end
$var wire 1 ? pd1s6 $end
$var wire 1 @ pdos4 $end
$var wire 1 A pdos6 $end
$var wire 1 B reset $end
$var wire 1 C sbyteclk $end
$var wire 10 D ten_bit_bus [9:0] $end
$var wire 10 E setValues [9:0] $end
$var wire 1 F b_h $end
$var wire 1 G b_g $end
$var wire 1 H H $end
$var wire 1 I G $end
$var wire 1 J F $end
$var wire 1 K E $end
$var wire 1 L D $end
$var wire 1 M C $end
$var wire 1 N B $end
$var wire 1 O A $end
$var reg 1 P a $end
$var reg 1 Q b $end
$var reg 1 R c $end
$var reg 1 S compls4 $end
$var reg 1 T compls6 $end
$var reg 1 U d $end
$var reg 1 V disparity $end
$var reg 1 W e $end
$var reg 1 X eNAO $end
$var reg 1 Y eNBOx $end
$var reg 1 Z eNBOy $end
$var reg 1 [ eNCOx $end
$var reg 1 \ eNCOy $end
$var reg 1 ] eNDO $end
$var reg 1 ^ eNEOx $end
$var reg 1 _ eNEOy $end
$var reg 1 ` eNIOw $end
$var reg 1 a eNIOx $end
$var reg 1 b eNIOy $end
$var reg 1 c eNIOz $end
$var reg 1 d f $end
$var reg 1 e g $end
$var reg 1 f h $end
$var reg 1 g i $end
$var reg 1 h j $end
$var reg 1 i lf $end
$var reg 1 G lg $end
$var reg 1 F lh $end
$var reg 1 j lj $end
$var reg 1 k tmp $end
$upscope $end
$scope module testbench $end
$var wire 1 l COL $end
$var wire 1 m transmitting $end
$var wire 1 n xmit $end
$var wire 8 o tx_o_set [7:0] $end
$var wire 10 p tx_code_group [9:0] $end
$var wire 1 q receiving $end
$var wire 1 r power_on $end
$var wire 1 s mr_main_reset $end
$var wire 1 t TX_ER $end
$var wire 1 u TX_EN $end
$var wire 8 v TXD [7:0] $end
$var wire 1 w RESET $end
$var wire 1 x GTX_CLK $end
$scope module dut_tx $end
$var wire 1 y TX_ER $end
$var wire 1 n xmit $end
$var wire 1 q receiving $end
$var wire 1 s mr_main_reset $end
$var wire 1 u TX_EN $end
$var wire 8 z TXD [7:0] $end
$var wire 1 x GTX_CLK $end
$var parameter 32 { END_of_Packet_NOEXT $end
$var parameter 32 | EPD2_NOEXT $end
$var parameter 32 } FALSE $end
$var parameter 32 ~ IDLE $end
$var parameter 32 !" Start_of_Packet $end
$var parameter 32 "" TX_Data $end
$var parameter 32 #" TX_Packet $end
$var parameter 32 $" TX_Test_Xmit $end
$var parameter 32 %" XMIT_Data $end
$var reg 1 &" COL $end
$var reg 1 '" TX_OSET_indicate $end
$var reg 5 (" pcs_tx_state [4:0] $end
$var reg 1 )" power_on $end
$var reg 5 *" state [4:0] $end
$var reg 1 +" transmitting $end
$var reg 1 ," tx_even $end
$var reg 8 -" tx_o_set [7:0] $end
$scope function VOID $end
$var reg 8 ." x [7:0] $end
$upscope $end
$upscope $end
$scope module tester_dut $end
$var wire 1 l COL $end
$var wire 1 m transmitting $end
$var wire 8 /" tx_o_set [7:0] $end
$var wire 10 0" tx_code_group [9:0] $end
$var reg 1 x GTX_CLK $end
$var reg 1 w RESET $end
$var reg 8 1" TXD [7:0] $end
$var reg 1 u TX_EN $end
$var reg 1 t TX_ER $end
$var reg 1 s mr_main_reset $end
$var reg 1 r power_on $end
$var reg 1 q receiving $end
$var reg 1 2" signal_detect $end
$var reg 16 3" tx_config_reg [15:0] $end
$var reg 1 n xmit $end
$upscope $end
$scope module tx_dut $end
$var wire 1 x GTX_CLK $end
$var wire 1 w RESET $end
$var wire 1 u TX_EN $end
$var wire 1 t TX_ER $end
$var wire 1 s mr_main_reset $end
$var wire 1 r power_on $end
$var wire 1 q receiving $end
$var wire 8 4" tx_o_set [7:0] $end
$var parameter 32 5" DATA_GO $end
$var parameter 32 6" GENERATE_CODE_GROUPS $end
$var parameter 32 7" IDLE_DISPARITY_OK $end
$var parameter 32 8" IDLE_DISPARITY_TEST $end
$var parameter 32 9" IDLE_I2B $end
$var parameter 32 :" SPECIAL_GO $end
$var reg 1 ;" COL $end
$var reg 1 <" PUDR $end
$var reg 16 =" cg_timer [15:0] $end
$var reg 1 >" encoder_K $end
$var reg 5 ?" pcs_tx_state [4:0] $end
$var reg 5 @" st [4:0] $end
$var reg 1 A" transmitting $end
$var reg 10 B" tx_code_group [9:0] $end
$var reg 1 C" tx_disparity $end
$var reg 1 D" tx_even $end
$var reg 1 E" tx_oset_indicate $end
$scope function ENCODE $end
$var reg 8 F" GMII_TXD [7:0] $end
$upscope $end
$upscope $end
$upscope $end
$enddefinitions $end
$comment Show the parameter values. $end
$dumpall
b10 :"
b110 9"
b100 8"
b101 7"
b1 6"
b11 5"
b10 %"
b0 $"
b100 #"
b101 ""
b11 !"
b1 ~
b0 }
b111 |
b110 {
$end
#0
$dumpvars
bx F"
xE"
xD"
xC"
bx B"
xA"
bx @"
bx ?"
x>"
bx ="
x<"
x;"
bx 4"
bx 3"
x2"
bx 1"
bx 0"
bx /"
bx ."
bx -"
0,"
x+"
bx *"
1)"
bx ("
1'"
x&"
bx z
zy
0x
xw
bx v
0u
xt
xs
xr
xq
bx p
bx o
xn
xm
xl
xk
xj
xi
xh
xg
xf
xe
xd
xc
xb
xa
x`
x_
x^
x]
x\
x[
xZ
xY
xX
xW
xV
xU
xT
xS
xR
xQ
xP
zO
zN
zM
zL
zK
zJ
zI
zH
xG
xF
bzxxxx E
bx D
zC
zB
xA
x@
x?
x>
x=
x<
x;
x:
x9
x8
x7
x6
x5
x4
x3
bz 2
z1
x0
x/
z.
x-
z,
z+
z*
z)
z(
x'
x&
x%
x$
x#
x"
x!
$end
#1
1x
#2
0x
#3
1x
#4
0x
#5
1x
#6
0x
#7
1x
#8
1n
1u
0s
0r
0w
0x
#9
b0 ("
0E"
b1 ?"
1)"
b0 *"
b0 p
b0 0"
b0 B"
0>"
0D"
b0 ="
0A"
b1 @"
1x
#10
b1 ("
0&"
0m
0+"
b10111100 v
b10111100 z
b10111100 1"
1s
1r
0x
#11
b100 ?"
b10111100 o
b10111100 -"
b10111100 /"
b10111100 4"
b10 ("
b1 *"
1x
#12
0x
#13
b11 ("
b101 ?"
1C"
b10 *"
b100 @"
1x
#14
0x
#15
b110 ?"
1<"
1D"
b1100000101 p
b1100000101 0"
b1100000101 B"
b100 ("
x&"
xm
1+"
b101 @"
b11 *"
1x
#16
0x
#17
b101 ("
1E"
0D"
b100 *"
b110 @"
1x
#18
0x
#19
b100 ("
b101 *"
1x
#20
0x
#21
b101 ("
b100 *"
1x
#22
0x
#23
b100 ("
b101 *"
1x
#24
0x
#25
b101 ("
b100 *"
1x
#26
0x
#27
b100 ("
b101 *"
1x
#28
0x
#29
b101 ("
b100 *"
1x
#30
0x
#31
b100 ("
b101 *"
1x
#32
0x
#33
b101 ("
b100 *"
1x
#34
0x
#35
b100 ("
b101 *"
1x
#36
0x
#37
b101 ("
b100 *"
1x
#38
0x
#39
b100 ("
b101 *"
1x
#40
0x
#41
b101 ("
b100 *"
1x
#42
0x
#43
b100 ("
b101 *"
1x
#44
0x
#45
b101 ("
b100 *"
1x
#46
0x
#47
b100 ("
b101 *"
1x
#48
0x
#49
b101 ("
b100 *"
1x
#50
0x
#51
b100 ("
b101 *"
1x
#52
0x
#53
b101 ("
b100 *"
1x
#54
0x
#55
b100 ("
b101 *"
1x
#56
0x
#57
b101 ("
b100 *"
1x
#58
b101 ("
0x
b1010000 v
b1010000 z
b1010000 1"
#59
b1 ?"
b1001000101 p
b1001000101 0"
b1001000101 B"
b100 ("
b1010000 o
b1010000 -"
b1010000 /"
b1010000 4"
b101 *"
1x
#60
0x
#61
b101 ("
b11 ?"
0E"
b100 *"
b1 @"
1x
#62
0x
#63
b1 ?"
1E"
1D"
b1010000 F"
b100 ("
b11 @"
b101 *"
1x
#64
0x
#65
b101 ("
b11 ?"
0E"
b100 *"
b1 @"
1x
#66
0x
#67
b1 ?"
1E"
0D"
b100 ("
b11 @"
b101 *"
1x
#68
0x
#69
b101 ("
b11 ?"
0E"
b100 *"
b1 @"
1x
#70
0x
#71
b1 ?"
1E"
1D"
b100 ("
b11 @"
b101 *"
1x
#72
0x
#73
b101 ("
b11 ?"
0E"
b100 *"
b1 @"
1x
#74
0x
#75
b1 ?"
1E"
0D"
b100 ("
b11 @"
b101 *"
1x
#76
0x
#77
b101 ("
b11 ?"
0E"
b100 *"
b1 @"
1x
#78
0x
#79
b1 ?"
1E"
1D"
b100 ("
b11 @"
b101 *"
1x
#80
0x
#81
b101 ("
b11 ?"
0E"
b100 *"
b1 @"
1x
#82
0x
#83
b1 ?"
1E"
0D"
b100 ("
b11 @"
b101 *"
1x
#84
0x
#85
b101 ("
b11 ?"
0E"
b100 *"
b1 @"
1x
#86
0x
#87
b1 ?"
1E"
1D"
b100 ("
b11 @"
b101 *"
1x
#88
0x
#89
b101 ("
b11 ?"
0E"
b100 *"
b1 @"
1x
#90
0x
#91
b1 ?"
1E"
0D"
b100 ("
b11 @"
b101 *"
1x
#92
0x
#93
b101 ("
b11 ?"
0E"
b100 *"
b1 @"
1x
#94
0x
#95
b1 ?"
1E"
1D"
b100 ("
b11 @"
b101 *"
1x
#96
0x
#97
b101 ("
b11 ?"
0E"
b100 *"
b1 @"
1x
#98
0x
#99
b1 ?"
1E"
0D"
b100 ("
b11 @"
b101 *"
1x
#100
0x
#101
b101 ("
b11 ?"
0E"
b100 *"
b1 @"
1x
#102
0x
#103
b1 ?"
1E"
1D"
b100 ("
b11 @"
b101 *"
1x
#104
0x
#105
b101 ("
b11 ?"
0E"
b100 *"
b1 @"
1x
#106
b101 ("
0x
b10111100 v
b10111100 z
b10111100 1"
#107
b1 ?"
1E"
0D"
b0 p
b0 0"
b0 B"
b10111100 F"
b100 ("
b10111100 o
b10111100 -"
b10111100 /"
b10111100 4"
b11 @"
b101 *"
1x
#108
0x
#109
b101 ("
b100 ?"
0E"
b100 *"
b1 @"
1x
#110
0x
#111
b101 ?"
b100 ("
b100 @"
b101 *"
1x
#112
0x
#113
b101 ("
b110 ?"
1D"
b1100000101 p
b1100000101 0"
b1100000101 B"
b100 *"
b101 @"
1x
#114
0x
#115
1E"
0D"
b100 ("
b110 @"
b101 *"
1x
#116
0x
#117
b101 ("
b100 *"
1x
#118
0x
#119
b100 ("
b101 *"
1x
#120
0x
#121
b101 ("
b100 *"
1x
#122
0x
#123
b100 ("
b101 *"
1x
#124
0x
#125
b101 ("
b100 *"
1x
#126
0x
#127
b100 ("
b101 *"
1x
#128
0x
#129
b101 ("
b100 *"
1x
#130
0x
#131
b100 ("
b101 *"
1x
#132
0x
#133
b101 ("
b100 *"
1x
#134
0x
#135
b100 ("
b101 *"
1x
#136
0x
#137
b101 ("
b100 *"
1x
#138
0x
#139
b100 ("
b101 *"
1x
#140
0x
#141
b101 ("
b100 *"
1x
#142
0x
#143
b100 ("
b101 *"
1x
#144
0x
#145
b101 ("
b100 *"
1x
#146
0x
#147
b100 ("
b101 *"
1x
#148
0x
#149
b101 ("
b100 *"
1x
#150
0x
#151
b100 ("
b101 *"
1x
#152
0x
#153
b101 ("
b100 *"
1x
#154
b101 ("
0x
b1010000 v
b1010000 z
b1010000 1"
#155
b1 ?"
b1001000101 p
b1001000101 0"
b1001000101 B"
b100 ("
b1010000 o
b1010000 -"
b1010000 /"
b1010000 4"
b101 *"
1x
#156
0x
#157
b101 ("
b11 ?"
0E"
b100 *"
b1 @"
1x
#158
0x
#159
b1 ?"
1E"
1D"
b1010000 F"
b100 ("
b11 @"
b101 *"
1x
#160
0x
#161
b101 ("
b11 ?"
0E"
b100 *"
b1 @"
1x
#162
0x
#163
b1 ?"
1E"
0D"
b100 ("
b11 @"
b101 *"
1x
#164
0x
#165
b101 ("
b11 ?"
0E"
b100 *"
b1 @"
1x
#166
0x
#167
b1 ?"
1E"
1D"
b100 ("
b11 @"
b101 *"
1x
#168
0x
#169
b101 ("
b11 ?"
0E"
b100 *"
b1 @"
1x
#170
0x
#171
b1 ?"
1E"
0D"
b100 ("
b11 @"
b101 *"
1x
#172
0x
#173
b101 ("
b11 ?"
0E"
b100 *"
b1 @"
1x
#174
0x
#175
b1 ?"
1E"
1D"
b100 ("
b11 @"
b101 *"
1x
#176
0x
#177
b101 ("
b11 ?"
0E"
b100 *"
b1 @"
1x
#178
0x
#179
b1 ?"
1E"
0D"
b100 ("
b11 @"
b101 *"
1x
#180
0x
#181
b101 ("
b11 ?"
0E"
b100 *"
b1 @"
1x
#182
0x
#183
b1 ?"
1E"
1D"
b100 ("
b11 @"
b101 *"
1x
#184
0x
#185
b101 ("
b11 ?"
0E"
b100 *"
b1 @"
1x
#186
0x
#187
b1 ?"
1E"
0D"
b100 ("
b11 @"
b101 *"
1x
#188
0x
#189
b101 ("
b11 ?"
0E"
b100 *"
b1 @"
1x
#190
0x
#191
b1 ?"
1E"
1D"
b100 ("
b11 @"
b101 *"
1x
#192
0x
#193
b101 ("
b11 ?"
0E"
b100 *"
b1 @"
1x
#194
0x
#195
b1 ?"
1E"
0D"
b100 ("
b11 @"
b101 *"
1x
#196
0x
#197
b101 ("
b11 ?"
0E"
b100 *"
b1 @"
1x
#198
0x
#199
b1 ?"
1E"
1D"
b100 ("
b11 @"
b101 *"
1x
#200
0x
#201
b101 ("
b11 ?"
0E"
b100 *"
b1 @"
1x
#202
b101 ("
0x
b10111100 v
b10111100 z
b10111100 1"
#203
b1 ?"
1E"
0D"
b0 p
b0 0"
b0 B"
b10111100 F"
b100 ("
b10111100 o
b10111100 -"
b10111100 /"
b10111100 4"
b11 @"
b101 *"
1x
#204
0x
#205
b101 ("
b100 ?"
0E"
b100 *"
b1 @"
1x
#206
0x
#207
b101 ?"
b100 ("
b100 @"
b101 *"
1x
#208
0x
#209
b101 ("
b110 ?"
1D"
b1100000101 p
b1100000101 0"
b1100000101 B"
b100 *"
b101 @"
1x
#210
0x
#211
1E"
0D"
b100 ("
b110 @"
b101 *"
1x
#212
0x
#213
b101 ("
b100 *"
1x
#214
0x
#215
b100 ("
b101 *"
1x
#216
0x
#217
b101 ("
b100 *"
1x
#218
0x
#219
b100 ("
b101 *"
1x
#220
0x
#221
b101 ("
b100 *"
1x
#222
0x
#223
b100 ("
b101 *"
1x
#224
0x
#225
b101 ("
b100 *"
1x
#226
0x
#227
b100 ("
b101 *"
1x
#228
0x
#229
b101 ("
b100 *"
1x
#230
0x
#231
b100 ("
b101 *"
1x
#232
0x
#233
b101 ("
b100 *"
1x
#234
0x
#235
b100 ("
b101 *"
1x
#236
0x
#237
b101 ("
b100 *"
1x
#238
0x
#239
b100 ("
b101 *"
1x
#240
0x
#241
b101 ("
b100 *"
1x
#242
0x
#243
b100 ("
b101 *"
1x
#244
0x
#245
b101 ("
b100 *"
1x
#246
0x
#247
b100 ("
b101 *"
1x
#248
0x
#249
b101 ("
b100 *"
1x
#250
b101 ("
0x
b1010000 v
b1010000 z
b1010000 1"
#251
b1 ?"
b1001000101 p
b1001000101 0"
b1001000101 B"
b100 ("
b1010000 o
b1010000 -"
b1010000 /"
b1010000 4"
b101 *"
1x
#252
0x
#253
b101 ("
b11 ?"
0E"
b100 *"
b1 @"
1x
#254
0x
#255
b1 ?"
1E"
1D"
b1010000 F"
b100 ("
b11 @"
b101 *"
1x
#256
0x
#257
b101 ("
b11 ?"
0E"
b100 *"
b1 @"
1x
#258
0x
#259
b1 ?"
1E"
0D"
b100 ("
b11 @"
b101 *"
1x
#260
0x
#261
b101 ("
b11 ?"
0E"
b100 *"
b1 @"
1x
#262
0x
#263
b1 ?"
1E"
1D"
b100 ("
b11 @"
b101 *"
1x
#264
0x
#265
b101 ("
b11 ?"
0E"
b100 *"
b1 @"
1x
#266
0x
#267
b1 ?"
1E"
0D"
b100 ("
b11 @"
b101 *"
1x
#268
0x
#269
b101 ("
b11 ?"
0E"
b100 *"
b1 @"
1x
#270
0x
#271
b1 ?"
1E"
1D"
b100 ("
b11 @"
b101 *"
1x
#272
0x
#273
b101 ("
b11 ?"
0E"
b100 *"
b1 @"
1x
#274
0x
#275
b1 ?"
1E"
0D"
b100 ("
b11 @"
b101 *"
1x
#276
0x
#277
b101 ("
b11 ?"
0E"
b100 *"
b1 @"
1x
#278
0x
#279
b1 ?"
1E"
1D"
b100 ("
b11 @"
b101 *"
1x
#280
0x
#281
b101 ("
b11 ?"
0E"
b100 *"
b1 @"
1x
#282
0x
#283
b1 ?"
1E"
0D"
b100 ("
b11 @"
b101 *"
1x
#284
0x
#285
b101 ("
b11 ?"
0E"
b100 *"
b1 @"
1x
#286
0x
#287
b1 ?"
1E"
1D"
b100 ("
b11 @"
b101 *"
1x
#288
0x
#289
b101 ("
b11 ?"
0E"
b100 *"
b1 @"
1x
#290
0x
#291
b1 ?"
1E"
0D"
b100 ("
b11 @"
b101 *"
1x
#292
0x
#293
b101 ("
b11 ?"
0E"
b100 *"
b1 @"
1x
#294
0x
#295
b1 ?"
1E"
1D"
b100 ("
b11 @"
b101 *"
1x
#296
0x
#297
b101 ("
b11 ?"
0E"
b100 *"
b1 @"
1x
#298
b101 ("
0x
b11111011 v
b11111011 z
b11111011 1"
#299
b1 ?"
1E"
0D"
b0 p
b0 0"
b0 B"
b11111011 F"
b100 ("
b11111011 o
b11111011 -"
b11111011 /"
b11111011 4"
b11 @"
b101 *"
1x
#300
0x
#301
b101 ("
b10 ?"
0E"
b100 *"
b1 @"
1x
#302
0x
#303
1E"
1D"
b1 ?"
b10010111 p
b10010111 0"
b10010111 B"
b100 ("
b10 @"
b101 *"
1x
#304
0x
#305
b101 ("
b10 ?"
0E"
b100 *"
b1 @"
1x
#306
0x
#307
1E"
0D"
b1 ?"
b100 ("
b10 @"
b101 *"
1x
#308
0x
#309
b101 ("
b10 ?"
0E"
b100 *"
b1 @"
1x
#310
0x
#311
1E"
1D"
b1 ?"
b100 ("
b10 @"
b101 *"
1x
#312
0x
#313
b101 ("
b10 ?"
0E"
b100 *"
b1 @"
1x
#314
0x
#315
1E"
0D"
b1 ?"
b100 ("
b10 @"
b101 *"
1x
#316
0x
#317
b101 ("
b10 ?"
0E"
b100 *"
b1 @"
1x
#318
0x
#319
1E"
1D"
b1 ?"
b100 ("
b10 @"
b101 *"
1x
#320
0x
#321
b101 ("
b10 ?"
0E"
b100 *"
b1 @"
1x
#322
0x
#323
1E"
0D"
b1 ?"
b100 ("
b10 @"
b101 *"
1x
#324
0x
#325
b101 ("
b10 ?"
0E"
b100 *"
b1 @"
1x
#326
0x
#327
1E"
1D"
b1 ?"
b100 ("
b10 @"
b101 *"
1x
#328
0x
#329
b101 ("
b10 ?"
0E"
b100 *"
b1 @"
1x
#330
0x
#331
1E"
0D"
b1 ?"
b100 ("
b10 @"
b101 *"
1x
#332
0x
#333
b101 ("
b10 ?"
0E"
b100 *"
b1 @"
1x
#334
0x
#335
1E"
1D"
b1 ?"
b100 ("
b10 @"
b101 *"
1x
#336
0x
#337
b101 ("
b10 ?"
0E"
b100 *"
b1 @"
1x
#338
0x
#339
1E"
0D"
b1 ?"
b100 ("
b10 @"
b101 *"
1x
#340
0x
#341
b101 ("
b10 ?"
0E"
b100 *"
b1 @"
1x
#342
0x
#343
1E"
1D"
b1 ?"
b100 ("
b10 @"
b101 *"
1x
#344
0x
#345
b101 ("
b10 ?"
0E"
b100 *"
b1 @"
1x
#346
b101 ("
0x
b11 v
b11 z
b11 1"
#347
1E"
0D"
b100 ("
b11 o
b11 -"
b11 /"
b11 4"
b10 @"
b101 *"
1x
#348
0x
#349
b101 ("
b100 *"
1x
#350
0x
#351
b100 ("
b101 *"
1x
#352
0x
#353
b101 ("
b100 *"
1x
#354
0x
#355
b100 ("
b101 *"
1x
#356
0x
#357
b101 ("
b100 *"
1x
#358
0x
#359
b100 ("
b101 *"
1x
#360
0x
#361
b101 ("
b100 *"
1x
#362
0x
#363
b100 ("
b101 *"
1x
#364
0x
#365
b101 ("
b100 *"
1x
#366
0x
#367
b100 ("
b101 *"
1x
#368
0x
#369
b101 ("
b100 *"
1x
#370
0x
#371
b100 ("
b101 *"
1x
#372
0x
#373
b101 ("
b100 *"
1x
#374
0x
#375
b100 ("
b101 *"
1x
#376
0x
#377
b101 ("
b100 *"
1x
#378
0x
#379
b100 ("
b101 *"
1x
#380
0x
#381
b101 ("
b100 *"
1x
#382
0x
#383
b100 ("
b101 *"
1x
#384
0x
#385
b101 ("
b100 *"
1x
#386
0x
#387
b100 ("
b101 *"
1x
#388
0x
#389
b101 ("
b100 *"
1x
#390
0x
#391
b100 ("
b101 *"
1x
#392
0x
#393
b101 ("
b100 *"
1x
#394
b101 ("
0x
b10 v
b10 z
b10 1"
#395
1D"
b100 ("
b10 o
b10 -"
b10 /"
b10 4"
b101 *"
1x
#396
0x
#397
b101 ("
b100 *"
1x
#398
0x
#399
b100 ("
b101 *"
1x
#400
0x
#401
b101 ("
b100 *"
1x
#402
0x
#403
b100 ("
b101 *"
1x
#404
0x
#405
b101 ("
b100 *"
1x
#406
0x
#407
b100 ("
b101 *"
1x
#408
0x
#409
b101 ("
b100 *"
1x
#410
0x
#411
b100 ("
b101 *"
1x
#412
0x
#413
b101 ("
b100 *"
1x
#414
0x
#415
b100 ("
b101 *"
1x
#416
0x
#417
b101 ("
b100 *"
1x
#418
0x
#419
b100 ("
b101 *"
1x
#420
0x
#421
b101 ("
b100 *"
1x
#422
0x
#423
b100 ("
b101 *"
1x
#424
0x
#425
b101 ("
b100 *"
1x
#426
0x
#427
b100 ("
b101 *"
1x
#428
0x
#429
b101 ("
b100 *"
1x
#430
0x
#431
b100 ("
b101 *"
1x
#432
0x
#433
b101 ("
b100 *"
1x
#434
0x
#435
b100 ("
b101 *"
1x
#436
0x
#437
b101 ("
b100 *"
1x
#438
0x
#439
b100 ("
b101 *"
1x
#440
0x
#441
b101 ("
b100 *"
1x
#442
b101 ("
0x
b1000010 v
b1000010 z
b1000010 1"
#443
0D"
b100 ("
b1000010 o
b1000010 -"
b1000010 /"
b1000010 4"
b101 *"
1x
#444
0x
#445
b101 ("
b100 *"
1x
#446
0x
#447
b100 ("
b101 *"
1x
#448
0x
#449
b101 ("
b100 *"
1x
#450
0x
#451
b100 ("
b101 *"
1x
#452
0x
#453
b101 ("
b100 *"
1x
#454
0x
#455
b100 ("
b101 *"
1x
#456
0x
#457
b101 ("
b100 *"
1x
#458
0x
#459
b100 ("
b101 *"
1x
#460
0x
#461
b101 ("
b100 *"
1x
#462
0x
#463
b100 ("
b101 *"
1x
#464
0x
#465
b101 ("
b100 *"
1x
#466
0x
#467
b100 ("
b101 *"
1x
#468
0x
#469
b101 ("
b100 *"
1x
#470
0x
#471
b100 ("
b101 *"
1x
#472
0x
#473
b101 ("
b100 *"
1x
#474
0x
#475
b100 ("
b101 *"
1x
#476
0x
#477
b101 ("
b100 *"
1x
#478
0x
#479
b100 ("
b101 *"
1x
#480
0x
#481
b101 ("
b100 *"
1x
#482
0x
#483
b100 ("
b101 *"
1x
#484
0x
#485
b101 ("
b100 *"
1x
#486
0x
#487
b100 ("
b101 *"
1x
#488
0x
#489
b101 ("
b100 *"
1x
#490
b101 ("
0x
b1 v
b1 z
b1 1"
#491
1D"
b100 ("
b1 o
b1 -"
b1 /"
b1 4"
b101 *"
1x
#492
0x
#493
b101 ("
b100 *"
1x
#494
0x
#495
b100 ("
b101 *"
1x
#496
0x
#497
b101 ("
b100 *"
1x
#498
0x
#499
b100 ("
b101 *"
1x
#500
0x
#501
b101 ("
b100 *"
1x
#502
0x
#503
b100 ("
b101 *"
1x
#504
0x
#505
b101 ("
b100 *"
1x
#506
0x
#507
b100 ("
b101 *"
1x
#508
0x
#509
b101 ("
b100 *"
1x
#510
0x
#511
b100 ("
b101 *"
1x
#512
0x
#513
b101 ("
b100 *"
1x
#514
0x
#515
b100 ("
b101 *"
1x
#516
0x
#517
b101 ("
b100 *"
1x
#518
0x
#519
b100 ("
b101 *"
1x
#520
0x
#521
b101 ("
b100 *"
1x
#522
0x
#523
b100 ("
b101 *"
1x
#524
0x
#525
b101 ("
b100 *"
1x
#526
0x
#527
b100 ("
b101 *"
1x
#528
0x
#529
b101 ("
b100 *"
1x
#530
0x
#531
b100 ("
b101 *"
1x
#532
0x
#533
b101 ("
b100 *"
1x
#534
0x
#535
b100 ("
b101 *"
1x
#536
0x
#537
b101 ("
b100 *"
1x
#538
b101 ("
0x
b0 v
b0 z
b0 1"
#539
0D"
b100 ("
b0 o
b0 -"
b0 /"
b0 4"
b101 *"
1x
#540
0x
#541
b101 ("
b100 *"
1x
#542
0x
#543
b100 ("
b101 *"
1x
#544
0x
#545
b101 ("
b100 *"
1x
#546
0x
#547
b100 ("
b101 *"
1x
#548
0x
#549
b101 ("
b100 *"
1x
#550
0x
#551
b100 ("
b101 *"
1x
#552
0x
#553
b101 ("
b100 *"
1x
#554
0x
#555
b100 ("
b101 *"
1x
#556
0x
#557
b101 ("
b100 *"
1x
#558
0x
#559
b100 ("
b101 *"
1x
#560
0x
#561
b101 ("
b100 *"
1x
#562
0x
#563
b100 ("
b101 *"
1x
#564
0x
#565
b101 ("
b100 *"
1x
#566
0x
#567
b100 ("
b101 *"
1x
#568
0x
#569
b101 ("
b100 *"
1x
#570
0x
#571
b100 ("
b101 *"
1x
#572
0x
#573
b101 ("
b100 *"
1x
#574
0x
#575
b100 ("
b101 *"
1x
#576
0x
#577
b101 ("
b100 *"
1x
#578
0x
#579
b100 ("
b101 *"
1x
#580
0x
#581
b101 ("
b100 *"
1x
#582
0x
#583
b100 ("
b101 *"
1x
#584
0x
#585
b101 ("
b100 *"
1x
#586
b110 ("
0x
b11110111 v
b11110111 z
b11110111 1"
0u
#587
1D"
b1 ?"
b1010111 p
b1010111 0"
b1010111 B"
b11110111 o
b11110111 -"
b11110111 /"
b11110111 4"
b111 ("
0&"
b110 *"
1x
#588
0x
#589
b10 ("
0m
0+"
b10 ?"
0E"
b111 *"
b1 @"
1x
#590
0x
#591
1E"
0D"
b1 ?"
b10 @"
b10 *"
1x
#592
0x
#593
b10 ?"
0E"
b1 @"
1x
#594
0x
#595
1E"
1D"
b1 ?"
b10 @"
1x
#596
0x
#597
b10 ?"
0E"
b1 @"
1x
#598
0x
#599
1E"
0D"
b1 ?"
b10 @"
1x
#600
0x
#601
b10 ?"
0E"
b1 @"
1x
#602
0x
#603
1E"
1D"
b1 ?"
b10 @"
1x
#604
0x
#605
b10 ?"
0E"
b1 @"
1x
#606
0x
#607
1E"
0D"
b1 ?"
b10 @"
1x
#608
0x
#609
b10 ?"
0E"
b1 @"
1x
#610
0x
#611
1E"
1D"
b1 ?"
b10 @"
1x
#612
0x
#613
b10 ?"
0E"
b1 @"
1x
#614
0x
#615
1E"
0D"
b1 ?"
b10 @"
1x
#616
0x
#617
b10 ?"
0E"
b1 @"
1x
#618
0x
#619
1E"
1D"
b1 ?"
b10 @"
1x
#620
0x
#621
b10 ?"
0E"
b1 @"
1x
#622
0x
#623
1E"
0D"
b1 ?"
b10 @"
1x
#624
0x
#625
b10 ?"
0E"
b1 @"
1x
#626
0x
#627
1E"
1D"
b1 ?"
b10 @"
1x
#628
0x
#629
b10 ?"
0E"
b1 @"
1x
#630
0x
#631
1E"
0D"
b1 ?"
b10 @"
1x
#632
0x
#633
b10 ?"
0E"
b1 @"
1x
#634
0x
#635
1E"
1D"
b1 ?"
b10 @"
1x
#636
0x
#637
b10 ?"
0E"
b1 @"
1x
#638
0x
#639
1E"
0D"
b1 ?"
b10 @"
1x
#640
0x
#641
b10 ?"
0E"
b1 @"
1x
#642
0x
#643
1E"
1D"
b1 ?"
b10 @"
1x
#644
0x
#645
b10 ?"
0E"
b1 @"
1x
#646
0x
#647
1E"
0D"
b1 ?"
b10 @"
1x
#648
0x
#649
b10 ?"
0E"
b1 @"
1x
#650
0x
#651
1E"
1D"
b1 ?"
b10 @"
1x
#652
0x
#653
b10 ?"
0E"
b1 @"
1x
#654
0x
#655
1E"
0D"
b1 ?"
b10 @"
1x
#656
0x
#657
b10 ?"
0E"
b1 @"
1x
#658
0x
#659
1E"
1D"
b1 ?"
b10 @"
1x
#660
0x
#661
b10 ?"
0E"
b1 @"
1x
#662
0x
#663
1E"
0D"
b1 ?"
b10 @"
1x
#664
0x
#665
b10 ?"
0E"
b1 @"
1x
#666
0x
#667
1E"
1D"
b1 ?"
b10 @"
1x
#668
0x
#669
b10 ?"
0E"
b1 @"
1x
#670
0x
#671
1E"
0D"
b1 ?"
b10 @"
1x
#672
0x
#673
b10 ?"
0E"
b1 @"
1x
#674
0x
#675
1E"
1D"
b1 ?"
b10 @"
1x
#676
0x
#677
b10 ?"
0E"
b1 @"
1x
#678
0x
#679
1E"
0D"
b1 ?"
b10 @"
1x
#680
0x
#681
b10 ?"
0E"
b1 @"
1x
#682
0x
