Tareas/Tarea_4/tb.vcd
$date
	Tue Oct 25 15:07:27 2022
$end
$version
	Icarus Verilog
$end
$timescale
	1s
$end
$scope module testbench $end
$var wire 1 ! reset $end
$var wire 1 " clk $end
$var wire 16 # WR_DATA [15:0] $end
$var wire 1 $ START_STB $end
$var wire 1 % SDA_OUT $end
$var wire 1 & SDA_OE $end
$var wire 1 ' SDA_IN $end
$var wire 1 ( SCL $end
$var wire 1 ) RNW $end
$var wire 16 * RD_DATA [15:0] $end
$var wire 7 + I2C_ADDR [6:0] $end
$scope module dut $end
$var wire 1 ! reset $end
$var wire 1 " clk $end
$var wire 16 , WR_DATA [15:0] $end
$var wire 1 $ START_STB $end
$var wire 1 ' SDA_IN $end
$var wire 1 ( SCL $end
$var wire 1 ) RNW $end
$var wire 7 - I2C_ADDR [6:0] $end
$var reg 16 . Count [15:0] $end
$var reg 16 / RD_DATA [15:0] $end
$var reg 1 0 RW $end
$var reg 1 & SDA_OE $end
$var reg 1 % SDA_OUT $end
$var reg 16 1 guardar_data [15:0] $end
$var reg 4 2 q [3:0] $end
$var reg 4 3 state [3:0] $end
$upscope $end
$scope module test $end
$var wire 16 4 RD_DATA [15:0] $end
$var wire 1 ( SCL $end
$var wire 1 & SDA_OE $end
$var wire 1 % SDA_OUT $end
$var reg 7 5 I2C_ADDR [6:0] $end
$var reg 1 ) RNW $end
$var reg 1 ' SDA_IN $end
$var reg 1 $ START_STB $end
$var reg 16 6 WR_DATA [15:0] $end
$var reg 1 " clk $end
$var reg 1 ! reset $end
$upscope $end
$upscope $end
$enddefinitions $end
#0
$dumpvars
b0 6
b0 5
bx 4
bx 3
b0 2
bx 1
x0
bx /
bx .
b0 -
b0 ,
b0 +
bx *
0)
0(
0'
x&
x%
0$
b0 #
0"
0!
$end
#1
b10000 .
b0 3
0&
0%
b0 *
b0 /
b0 4
b1 2
1"
#2
0"
#3
b10000 .
b10 2
1"
#4
0"
#5
b10000 .
b11 2
1"
#6
0"
#7
b10000 .
1(
b100 2
1"
#8
0"
1$
1!
#9
b101 2
1"
#10
0"
b111111 +
b111111 -
b111111 5
0$
#11
b110 2
1"
#12
0"
#13
b111 2
1"
#14
0"
#15
0(
b1000 2
1"
#16
0"
#17
b1001 2
1"
#18
0"
#19
b1010 2
1"
#20
0"
#21
b1011 2
1"
#22
0"
#23
b1 3
1(
b1100 2
1"
#24
0"
#25
b1101 2
1"
#26
0"
#27
b1110 2
1"
#28
0"
#29
b1111 2
1"
#30
0"
#31
0(
b0 2
1"
#32
0"
#33
b1 2
1"
#34
0"
#35
b10 2
1"
#36
0"
#37
b11 2
1"
#38
0"
#39
1%
b110 .
b10 3
1(
b100 2
1"
#40
0"
#41
b101 2
1"
#42
0"
#43
b110 2
1"
#44
0"
#45
b111 2
1"
#46
0"
#47
0(
b1000 2
1"
#48
0"
#49
b1001 2
1"
#50
0"
#51
b1010 2
1"
#52
0"
#53
b1011 2
1"
#54
0"
#55
b101 .
1&
0%
1(
b1100 2
1"
#56
0"
#57
b1101 2
1"
#58
0"
#59
b1110 2
1"
#60
0"
#61
b1111 2
1"
#62
0"
#63
0(
b0 2
1"
#64
0"
#65
b1 2
1"
#66
0"
#67
b10 2
1"
#68
0"
#69
b11 2
1"
#70
0"
#71
b100 .
1%
1(
b100 2
1"
#72
0"
#73
b101 2
1"
#74
0"
#75
b110 2
1"
#76
0"
#77
b111 2
1"
#78
0"
#79
0(
b1000 2
1"
#80
0"
#81
b1001 2
1"
#82
0"
#83
b1010 2
1"
#84
0"
#85
b1011 2
1"
#86
0"
#87
b11 .
1(
b1100 2
1"
#88
0"
#89
b1101 2
1"
#90
0"
b10001010111 #
b10001010111 ,
b10001010111 6
#91
b1110 2
1"
#92
0"
#93
b1111 2
1"
#94
0"
#95
0(
b0 2
1"
#96
0"
#97
b1 2
1"
#98
0"
#99
b10 2
1"
#100
0"
#101
b11 2
1"
#102
0"
#103
b10 .
1(
b100 2
1"
#104
0"
#105
b101 2
1"
#106
0"
#107
b110 2
1"
#108
0"
#109
b111 2
1"
#110
0"
#111
0(
b1000 2
1"
#112
0"
#113
b1001 2
1"
#114
0"
#115
b1010 2
1"
#116
0"
#117
b1011 2
1"
#118
0"
#119
b1 .
1(
b1100 2
1"
#120
0"
#121
b1101 2
1"
#122
0"
#123
b1110 2
1"
#124
0"
#125
b1111 2
1"
#126
0"
#127
0(
b0 2
1"
#128
0"
#129
b1 2
1"
#130
0"
#131
b10 2
1"
#132
0"
#133
b11 2
1"
#134
0"
#135
b0 .
1(
b100 2
1"
#136
0"
#137
b101 2
1"
#138
0"
#139
b110 2
1"
#140
0"
#141
b111 2
1"
#142
0"
#143
0(
b1000 2
1"
#144
0"
#145
b1001 2
1"
#146
0"
#147
b1010 2
1"
#148
0"
#149
b1011 2
1"
#150
0"
#151
b11 3
1(
b1100 2
1"
#152
0"
#153
b1101 2
1"
#154
0"
#155
b1110 2
1"
#156
0"
#157
b1111 2
1"
#158
0"
#159
0(
b0 2
1"
#160
0"
#161
b1 2
1"
#162
0"
#163
b10 2
1"
#164
0"
#165
b11 2
1"
#166
0"
#167
b100 3
0%
0&
1(
b100 2
1"
#168
0"
#169
b101 2
1"
#170
0"
#171
b110 2
1"
#172
0"
#173
b111 2
1"
#174
0"
#175
0(
b1000 2
1"
#176
0"
#177
b1001 2
1"
#178
0"
#179
b1010 2
1"
#180
0"
#181
b1011 2
1"
#182
0"
#183
b100 1
b111 .
b101 3
1%
00
1(
b1100 2
1"
#184
0"
#185
b1101 2
1"
#186
0"
#187
b1110 2
1"
#188
0"
#189
b1111 2
1"
#190
0"
#191
0(
b0 2
1"
#192
0"
#193
b1 2
1"
#194
0"
#195
b10 2
1"
#196
0"
#197
b11 2
1"
#198
0"
#199
b110 .
0%
1(
b100 2
1"
#200
0"
#201
b101 2
1"
#202
0"
#203
b110 2
1"
#204
0"
#205
b111 2
1"
#206
0"
#207
0(
b1000 2
1"
#208
0"
#209
b1001 2
1"
#210
0"
#211
b1010 2
1"
#212
0"
#213
b1011 2
1"
#214
0"
#215
b101 .
1(
b1100 2
1"
#216
0"
#217
b1101 2
1"
#218
0"
#219
b1110 2
1"
#220
0"
#221
b1111 2
1"
#222
0"
#223
0(
b0 2
1"
#224
0"
#225
b1 2
1"
#226
0"
#227
b10 2
1"
#228
0"
#229
b11 2
1"
#230
0"
#231
b100 .
1(
b100 2
1"
#232
0"
#233
b101 2
1"
#234
0"
#235
b110 2
1"
#236
0"
#237
b111 2
1"
#238
0"
#239
0(
b1000 2
1"
#240
0"
#241
b1001 2
1"
#242
0"
#243
b1010 2
1"
#244
0"
#245
b1011 2
1"
#246
0"
#247
b11 .
1(
b1100 2
1"
#248
0"
#249
b1101 2
1"
#250
0"
#251
b1110 2
1"
#252
0"
#253
b1111 2
1"
#254
0"
#255
0(
b0 2
1"
#256
0"
#257
b1 2
1"
#258
0"
#259
b10 2
1"
#260
0"
#261
b11 2
1"
#262
0"
#263
b10 .
1(
b100 2
1"
#264
0"
#265
b101 2
1"
#266
0"
#267
b110 2
1"
#268
0"
#269
b111 2
1"
#270
0"
#271
0(
b1000 2
1"
#272
0"
#273
b1001 2
1"
#274
0"
#275
b1010 2
1"
#276
0"
#277
b1011 2
1"
#278
0"
#279
b1 .
1%
1(
b1100 2
1"
#280
0"
#281
b1101 2
1"
#282
0"
#283
b1110 2
1"
#284
0"
#285
b1111 2
1"
#286
0"
#287
0(
b0 2
1"
#288
0"
#289
b1 2
1"
#290
0"
#291
b10 2
1"
#292
0"
#293
b11 2
1"
#294
0"
#295
b0 .
0%
1(
b100 2
1"
#296
0"
#297
b101 2
1"
#298
0"
#299
b110 2
1"
#300
0"
#301
b111 2
1"
#302
0"
#303
0(
b1000 2
1"
#304
0"
#305
b1001 2
1"
#306
0"
#307
b1010 2
1"
#308
0"
#309
b1011 2
1"
#310
0"
#311
b111 3
1(
b1100 2
1"
#312
0"
#313
b1101 2
1"
#314
0"
#315
b1110 2
1"
#316
0"
#317
b1111 2
1"
#318
0"
#319
0(
b0 2
1"
#320
0"
#321
b1 2
1"
#322
0"
#323
b10 2
1"
#324
0"
#325
b11 2
1"
#326
0"
#327
b111 .
b1010111 1
b1001 3
1%
1(
b100 2
1"
#328
0"
#329
b101 2
1"
#330
0"
#331
b110 2
1"
#332
0"
#333
b111 2
1"
#334
0"
#335
0(
b1000 2
1"
#336
0"
#337
b1001 2
1"
#338
0"
#339
b1010 2
1"
#340
0"
#341
b1011 2
1"
#342
0"
#343
b110 .
1&
0%
1(
b1100 2
1"
#344
0"
#345
b1101 2
1"
#346
0"
#347
b1110 2
1"
#348
0"
#349
b1111 2
1"
#350
0"
#351
0(
b0 2
1"
#352
0"
#353
b1 2
1"
#354
0"
#355
b10 2
1"
#356
0"
#357
b11 2
1"
#358
0"
#359
b101 .
1%
1(
b100 2
1"
#360
0"
#361
b101 2
1"
#362
0"
#363
b110 2
1"
#364
0"
#365
b111 2
1"
#366
0"
#367
0(
b1000 2
1"
#368
0"
#369
b1001 2
1"
#370
0"
#371
b1010 2
1"
#372
0"
#373
b1011 2
1"
#374
0"
#375
b100 .
0%
1(
b1100 2
1"
#376
0"
#377
b1101 2
1"
#378
0"
#379
b1110 2
1"
#380
0"
#381
b1111 2
1"
#382
0"
#383
0(
b0 2
1"
#384
0"
#385
b1 2
1"
#386
0"
#387
b10 2
1"
#388
0"
#389
b11 2
1"
#390
0"
#391
b11 .
1%
1(
b100 2
1"
#392
0"
#393
b101 2
1"
#394
0"
#395
b110 2
1"
#396
0"
#397
b111 2
1"
#398
0"
#399
0(
b1000 2
1"
#400
0"
#401
b1001 2
1"
#402
0"
#403
b1010 2
1"
#404
0"
#405
b1011 2
1"
#406
0"
#407
b10 .
0%
1(
b1100 2
1"
#408
0"
#409
b1101 2
1"
#410
0"
#411
b1110 2
1"
#412
0"
#413
b1111 2
1"
#414
0"
#415
0(
b0 2
1"
#416
0"
#417
b1 2
1"
#418
0"
#419
b10 2
1"
#420
0"
#421
b11 2
1"
#422
0"
#423
b1 .
1%
1(
b100 2
1"
#424
0"
#425
b101 2
1"
#426
0"
#427
b110 2
1"
#428
0"
#429
b111 2
1"
#430
0"
#431
0(
b1000 2
1"
#432
0"
#433
b1001 2
1"
#434
0"
#435
b1010 2
1"
#436
0"
#437
b1011 2
1"
#438
0"
#439
b0 .
1(
b1100 2
1"
#440
0"
#441
b1101 2
1"
#442
0"
#443
b1110 2
1"
#444
0"
#445
b1111 2
1"
#446
0"
#447
0(
b0 2
1"
#448
0"
#449
b1 2
1"
#450
0"
#451
b10 2
1"
#452
0"
#453
b11 2
1"
#454
0"
#455
b1011 3
1(
b100 2
1"
#456
0"
#457
b101 2
1"
#458
0"
#459
b110 2
1"
#460
0"
#461
b111 2
1"
#462
0"
#463
0(
b1000 2
1"
#464
0"
#465
b1001 2
1"
#466
0"
#467
b1010 2
1"
#468
0"
#469
b1011 2
1"
#470
0"
#471
b1111 3
0%
1(
b1100 2
1"
#472
0"
#473
b1101 2
1"
#474
0"
#475
b1110 2
1"
#476
0"
#477
b1111 2
1"
#478
0"
#479
0(
b0 2
1"
#480
0"
#481
b1 2
1"
#482
0"
#483
b10 2
1"
#484
0"
#485
b11 2
1"
#486
0"
#487
b0 3
1%
1(
b100 2
1"
#488
0"
#489
b101 2
1"
#490
0"
#491
b110 2
1"
#492
0"
#493
b111 2
1"
#494
0"
#495
0(
b1000 2
1"
#496
0"
#497
b1001 2
1"
#498
0"
#499
b1010 2
1"
#500
0"
#501
b1011 2
1"
#502
0"
#503
0&
b1 3
0%
1(
b1100 2
1"
#504
0"
#505
b1101 2
1"
#506
0"
#507
b1110 2
1"
#508
0"
#509
b1111 2
1"
#510
0"
#511
0(
b0 2
1"
#512
0"
#513
b1 2
1"
#514
0"
#515
b10 2
1"
#516
0"
#517
b11 2
1"
#518
0"
#519
1%
b110 .
b10 3
1(
b100 2
1"
#520
0"
#521
b101 2
1"
#522
0"
#523
b110 2
1"
#524
0"
#525
b111 2
1"
#526
0"
#527
0(
b1000 2
1"
#528
0"
#529
b1001 2
1"
#530
0"
#531
b1010 2
1"
#532
0"
#533
b1011 2
1"
#534
0"
#535
b101 .
1&
0%
1(
b1100 2
1"
#536
0"
#537
b1101 2
1"
#538
0"
#539
b1110 2
1"
#540
0"
#541
b1111 2
1"
#542
0"
#543
0(
b0 2
1"
#544
0"
#545
b1 2
1"
#546
0"
#547
b10 2
1"
#548
0"
#549
b11 2
1"
#550
0"
#551
b100 .
1%
1(
b100 2
1"
#552
0"
#553
b101 2
1"
#554
0"
#555
b110 2
1"
#556
0"
#557
b111 2
1"
#558
0"
#559
0(
b1000 2
1"
#560
0"
#561
b1001 2
1"
#562
0"
#563
b1010 2
1"
#564
0"
#565
b1011 2
1"
#566
0"
#567
b11 .
1(
b1100 2
1"
#568
0"
#569
b1101 2
1"
#570
0"
#571
b1110 2
1"
#572
0"
#573
b1111 2
1"
#574
0"
#575
0(
b0 2
1"
#576
0"
#577
b1 2
1"
#578
0"
#579
b10 2
1"
#580
0"
#581
b11 2
1"
#582
0"
#583
b10 .
1(
b100 2
1"
#584
0"
#585
b101 2
1"
#586
0"
#587
b110 2
1"
#588
0"
#589
b111 2
1"
#590
0"
b0 +
b0 -
b0 5
0!
#591
b10000 .
b0 3
0&
0%
0(
b1000 2
1"
#592
0"
#593
b10000 .
b1001 2
1"
#594
0"
#595
b10000 .
b1010 2
1"
#596
0"
#597
b10000 .
b1011 2
1"
#598
0"
1$
1!
#599
b1 3
1(
b1100 2
1"
#600
0"
1)
b111111 +
b111111 -
b111111 5
0$
#601
b1101 2
1"
#602
0"
#603
b1110 2
1"
#604
0"
#605
b1111 2
1"
#606
0"
#607
0(
b0 2
1"
#608
0"
#609
b1 2
1"
#610
0"
#611
b10 2
1"
#612
0"
#613
b11 2
1"
#614
0"
#615
1%
b110 .
b10 3
1(
b100 2
1"
#616
0"
#617
b101 2
1"
#618
0"
#619
b110 2
1"
#620
0"
#621
b111 2
1"
#622
0"
#623
0(
b1000 2
1"
#624
0"
#625
b1001 2
1"
#626
0"
#627
b1010 2
1"
#628
0"
#629
b1011 2
1"
#630
0"
#631
b101 .
1&
0%
1(
b1100 2
1"
#632
0"
#633
b1101 2
1"
#634
0"
#635
b1110 2
1"
#636
0"
#637
b1111 2
1"
#638
0"
#639
0(
b0 2
1"
#640
0"
#641
b1 2
1"
#642
0"
#643
b10 2
1"
#644
0"
#645
b11 2
1"
#646
0"
#647
b100 .
1%
1(
b100 2
1"
#648
0"
#649
b101 2
1"
#650
0"
#651
b110 2
1"
#652
0"
#653
b111 2
1"
#654
0"
#655
0(
b1000 2
1"
#656
0"
#657
b1001 2
1"
#658
0"
#659
b1010 2
1"
#660
0"
#661
b1011 2
1"
#662
0"
#663
b11 .
1(
b1100 2
1"
#664
0"
#665
b1101 2
1"
#666
0"
#667
b1110 2
1"
#668
0"
#669
b1111 2
1"
#670
0"
#671
0(
b0 2
1"
#672
0"
#673
b1 2
1"
#674
0"
#675
b10 2
1"
#676
0"
#677
b11 2
1"
#678
0"
#679
b10 .
1(
b100 2
1"
#680
0"
#681
b101 2
1"
#682
0"
#683
b110 2
1"
#684
0"
#685
b111 2
1"
#686
0"
#687
0(
b1000 2
1"
#688
0"
#689
b1001 2
1"
#690
0"
#691
b1010 2
1"
#692
0"
#693
b1011 2
1"
#694
0"
#695
b1 .
1(
b1100 2
1"
#696
0"
#697
b1101 2
1"
#698
0"
#699
b1110 2
1"
#700
0"
#701
b1111 2
1"
#702
0"
1'
#703
0(
b0 2
1"
#704
0"
#705
b1 2
1"
#706
0"
#707
b10 2
1"
#708
0"
#709
b11 2
1"
#710
0"
#711
b0 .
1(
b100 2
1"
#712
0"
#713
b101 2
1"
#714
0"
#715
b110 2
1"
#716
0"
#717
b111 2
1"
#718
0"
#719
0(
b1000 2
1"
#720
0"
#721
b1001 2
1"
#722
0"
#723
b1010 2
1"
#724
0"
#725
b1011 2
1"
#726
0"
#727
b11 3
1(
b1100 2
1"
#728
0"
#729
b1101 2
1"
#730
0"
#731
b1110 2
1"
#732
0"
#733
b1111 2
1"
#734
0"
#735
0(
b0 2
1"
#736
0"
#737
b1 2
1"
#738
0"
#739
b10 2
1"
#740
0"
#741
b11 2
1"
#742
0"
#743
b100 3
0&
1(
b100 2
1"
#744
0"
#745
b101 2
1"
#746
0"
#747
b110 2
1"
#748
0"
#749
b111 2
1"
#750
0"
#751
0(
b1000 2
1"
#752
0"
#753
b1001 2
1"
#754
0"
#755
b1010 2
1"
#756
0"
#757
b1011 2
1"
#758
0"
#759
b111 .
b110 3
10
1(
b1100 2
1"
#760
0"
#761
b1101 2
1"
#762
0"
#763
b1110 2
1"
#764
0"
#765
b1111 2
1"
#766
0"
#767
0(
b0 2
1"
#768
0"
#769
b1 2
1"
#770
0"
#771
b10 2
1"
#772
0"
#773
b11 2
1"
#774
0"
#775
b110 .
0%
b10000000 *
b10000000 /
b10000000 4
1(
b100 2
1"
#776
0"
#777
b101 2
1"
#778
0"
#779
b110 2
1"
#780
0"
#781
b111 2
1"
#782
0"
#783
0(
b1000 2
1"
#784
0"
#785
b1001 2
1"
#786
0"
#787
b1010 2
1"
#788
0"
#789
b1011 2
1"
#790
0"
#791
b101 .
b11000000 *
b11000000 /
b11000000 4
1(
b1100 2
1"
#792
0"
#793
b1101 2
1"
#794
0"
#795
b1110 2
1"
#796
0"
#797
b1111 2
1"
#798
0"
#799
0(
b0 2
1"
#800
0"
#801
b1 2
1"
#802
0"
#803
b10 2
1"
#804
0"
#805
b11 2
1"
#806
0"
#807
b100 .
b11100000 *
b11100000 /
b11100000 4
1(
b100 2
1"
#808
0"
#809
b101 2
1"
#810
0"
#811
b110 2
1"
#812
0"
#813
b111 2
1"
#814
0"
#815
0(
b1000 2
1"
#816
0"
#817
b1001 2
1"
#818
0"
#819
b1010 2
1"
#820
0"
#821
b1011 2
1"
#822
0"
#823
b11 .
b11110000 *
b11110000 /
b11110000 4
1(
b1100 2
1"
#824
0"
#825
b1101 2
1"
#826
0"
#827
b1110 2
1"
#828
0"
#829
b1111 2
1"
#830
0"
#831
0(
b0 2
1"
#832
0"
#833
b1 2
1"
#834
0"
#835
b10 2
1"
#836
0"
#837
b11 2
1"
#838
0"
#839
b10 .
b11111000 *
b11111000 /
b11111000 4
1(
b100 2
1"
#840
0"
#841
b101 2
1"
#842
0"
#843
b110 2
1"
#844
0"
#845
b111 2
1"
#846
0"
#847
0(
b1000 2
1"
#848
0"
#849
b1001 2
1"
#850
0"
#851
b1010 2
1"
#852
0"
#853
b1011 2
1"
#854
0"
#855
b1 .
b11111100 *
b11111100 /
b11111100 4
1(
b1100 2
1"
#856
0"
#857
b1101 2
1"
#858
0"
#859
b1110 2
1"
#860
0"
#861
b1111 2
1"
#862
0"
0'
#863
0(
b0 2
1"
#864
0"
#865
b1 2
1"
#866
0"
#867
b10 2
1"
#868
0"
#869
b11 2
1"
#870
0"
#871
b0 .
1(
b100 2
1"
#872
0"
#873
b101 2
1"
#874
0"
#875
b110 2
1"
#876
0"
#877
b111 2
1"
#878
0"
#879
0(
b1000 2
1"
#880
0"
#881
b1001 2
1"
#882
0"
#883
b1010 2
1"
#884
0"
#885
b1011 2
1"
#886
0"
#887
b1000 3
1(
b1100 2
1"
#888
0"
#889
b1101 2
1"
#890
0"
#891
b1110 2
1"
#892
0"
#893
b1111 2
1"
#894
0"
#895
0(
b0 2
1"
#896
0"
#897
b1 2
1"
#898
0"
#899
b10 2
1"
#900
0"
#901
b11 2
1"
#902
0"
#903
b111 .
b1010 3
1%
1(
b100 2
1"
#904
0"
#905
b101 2
1"
#906
0"
#907
b110 2
1"
#908
0"
#909
b111 2
1"
#910
0"
#911
0(
b1000 2
1"
#912
0"
#913
b1001 2
1"
#914
0"
#915
b1010 2
1"
#916
0"
#917
b1011 2
1"
#918
0"
#919
b110 .
b1111100 *
b1111100 /
b1111100 4
1(
b1100 2
1"
#920
0"
#921
b1101 2
1"
#922
0"
#923
b1110 2
1"
#924
0"
#925
b1111 2
1"
#926
0"
#927
0(
b0 2
1"
#928
0"
#929
b1 2
1"
#930
0"
#931
b10 2
1"
#932
0"
#933
b11 2
1"
#934
0"
#935
b101 .
b111100 *
b111100 /
b111100 4
1(
b100 2
1"
#936
0"
#937
b101 2
1"
#938
0"
#939
b110 2
1"
#940
0"
#941
b111 2
1"
#942
0"
1'
#943
0(
b1000 2
1"
#944
0"
#945
b1001 2
1"
#946
0"
#947
b1010 2
1"
#948
0"
#949
b1011 2
1"
#950
0"
#951
b100 .
1(
b1100 2
1"
#952
0"
#953
b1101 2
1"
#954
0"
#955
b1110 2
1"
#956
0"
#957
b1111 2
1"
#958
0"
#959
0(
b0 2
1"
#960
0"
#961
b1 2
1"
#962
0"
#963
b10 2
1"
#964
0"
#965
b11 2
1"
#966
0"
#967
b11 .
1(
b100 2
1"
#968
0"
#969
b101 2
1"
#970
0"
#971
b110 2
1"
#972
0"
#973
b111 2
1"
#974
0"
#975
0(
b1000 2
1"
#976
0"
#977
b1001 2
1"
#978
0"
#979
b1010 2
1"
#980
0"
#981
b1011 2
1"
#982
0"
#983
b10 .
1(
b1100 2
1"
#984
0"
#985
b1101 2
1"
#986
0"
#987
b1110 2
1"
#988
0"
#989
b1111 2
1"
#990
0"
#991
0(
b0 2
1"
#992
0"
#993
b1 2
1"
#994
0"
#995
b10 2
1"
#996
0"
#997
b11 2
1"
#998
0"
#999
b1 .
1(
b100 2
1"
#1000
0"
#1001
b101 2
1"
#1002
0"
#1003
b110 2
1"
#1004
0"
#1005
b111 2
1"
#1006
0"
#1007
0(
b1000 2
1"
#1008
0"
#1009
b1001 2
1"
#1010
0"
#1011
b1010 2
1"
#1012
0"
#1013
b1011 2
1"
#1014
0"
#1015
b0 .
0%
b111110 *
b111110 /
b111110 4
1(
b1100 2
1"
#1016
0"
#1017
b1101 2
1"
#1018
0"
#1019
b1110 2
1"
#1020
0"
#1021
b1111 2
1"
#1022
0"
0'
#1023
0(
b0 2
1"
#1024
0"
#1025
b1 2
1"
#1026
0"
#1027
b10 2
1"
#1028
0"
#1029
b11 2
1"
#1030
0"
#1031
b1011 3
1(
b100 2
1"
#1032
0"
#1033
b101 2
1"
#1034
0"
#1035
b110 2
1"
#1036
0"
#1037
b111 2
1"
#1038
0"
#1039
0(
b1000 2
1"
#1040
0"
#1041
b1001 2
1"
#1042
0"
#1043
b1010 2
1"
#1044
0"
#1045
b1011 2
1"
#1046
0"
#1047
b1111 3
1(
b1100 2
1"
#1048
0"
#1049
b1101 2
1"
#1050
0"
#1051
b1110 2
1"
#1052
0"
#1053
b1111 2
1"
#1054
0"
#1055
0(
b0 2
1"
#1056
0"
#1057
b1 2
1"
#1058
0"
#1059
b10 2
1"
#1060
0"
#1061
b11 2
1"
#1062
0"
#1063
b0 3
1%
1(
b100 2
1"
#1064
0"
#1065
b101 2
1"
#1066
0"
#1067
b110 2
1"
#1068
0"
#1069
b111 2
1"
#1070
0"
#1071
0(
b1000 2
1"
#1072
0"
#1073
b1001 2
1"
#1074
0"
#1075
b1010 2
1"
#1076
0"
#1077
b1011 2
1"
#1078
0"
#1079
b1 3
0%
1(
b1100 2
1"
#1080
0"
#1081
b1101 2
1"
#1082
0"
#1083
b1110 2
1"
#1084
0"
#1085
b1111 2
1"
#1086
0"
#1087
0(
b0 2
1"
#1088
0"
#1089
b1 2
1"
#1090
0"
#1091
b10 2
1"
#1092
0"
#1093
b11 2
1"
#1094
0"
#1095
1%
b110 .
b10 3
1(
b100 2
1"
#1096
0"
#1097
b101 2
1"
#1098
0"
#1099
b110 2
1"
#1100
0"
#1101
b111 2
1"
#1102
0"
1'
#1103
0(
b1000 2
1"
#1104
0"
#1105
b1001 2
1"
#1106
0"
#1107
b1010 2
1"
#1108
0"
#1109
b1011 2
1"
#1110
0"
#1111
b101 .
1&
0%
1(
b1100 2
1"
#1112
0"
#1113
b1101 2
1"
#1114
0"
#1115
b1110 2
1"
#1116
0"
#1117
b1111 2
1"
#1118
0"
#1119
0(
b0 2
1"
#1120
0"
#1121
b1 2
1"
#1122
0"
#1123
b10 2
1"
#1124
0"
#1125
b11 2
1"
#1126
0"
#1127
b100 .
1%
1(
b100 2
1"
#1128
0"
#1129
b101 2
1"
#1130
0"
#1131
b110 2
1"
#1132
0"
#1133
b111 2
1"
#1134
0"
#1135
0(
b1000 2
1"
#1136
0"
#1137
b1001 2
1"
#1138
0"
#1139
b1010 2
1"
#1140
0"
#1141
b1011 2
1"
#1142
0"
0'
#1143
b11 .
1(
b1100 2
1"
#1144
0"
#1145
b1101 2
1"
#1146
0"
#1147
b1110 2
1"
#1148
0"
#1149
b1111 2
1"
#1150
0"
#1151
0(
b0 2
1"
#1152
0"
#1153
b1 2
1"
#1154
0"
#1155
b10 2
1"
#1156
0"
#1157
b11 2
1"
#1158
0"
#1159
b10 .
1(
b100 2
1"
#1160
0"
#1161
b101 2
1"
#1162
0"
#1163
b110 2
1"
#1164
0"
#1165
b111 2
1"
#1166
0"
#1167
0(
b1000 2
1"
#1168
0"
#1169
b1001 2
1"
#1170
0"
#1171
b1010 2
1"
#1172
0"
#1173
b1011 2
1"
#1174
0"
#1175
b1 .
1(
b1100 2
1"
#1176
0"
#1177
b1101 2
1"
#1178
0"
#1179
b1110 2
1"
#1180
0"
#1181
b1111 2
1"
#1182
0"
1'
#1183
0(
b0 2
1"
#1184
0"
#1185
b1 2
1"
#1186
0"
#1187
b10 2
1"
#1188
0"
#1189
b11 2
1"
#1190
0"
#1191
b0 .
1(
b100 2
1"
#1192
0"
#1193
b101 2
1"
#1194
0"
#1195
b110 2
1"
#1196
0"
#1197
b111 2
1"
#1198
0"
#1199
0(
b1000 2
1"
#1200
0"
#1201
b1001 2
1"
#1202
0"
#1203
b1010 2
1"
#1204
0"
#1205
b1011 2
1"
#1206
0"
#1207
b11 3
1(
b1100 2
1"
#1208
0"
#1209
b1101 2
1"
#1210
0"
#1211
b1110 2
1"
#1212
0"
#1213
b1111 2
1"
#1214
0"
#1215
0(
b0 2
1"
#1216
0"
#1217
b1 2
1"
#1218
0"
#1219
b10 2
1"
#1220
0"
#1221
b11 2
1"
#1222
0"
#1223
b100 3
0&
1(
b100 2
1"
#1224
0"
#1225
b101 2
1"
#1226
0"
#1227
b110 2
1"
#1228
0"
#1229
b111 2
1"
#1230
0"
#1231
0(
b1000 2
1"
#1232
0"
#1233
b1001 2
1"
#1234
0"
#1235
b1010 2
1"
#1236
0"
#1237
b1011 2
1"
#1238
0"
#1239
b111 .
b110 3
1(
b1100 2
1"
#1240
0"
#1241
b1101 2
1"
#1242
0"
#1243
b1110 2
1"
#1244
0"
#1245
b1111 2
1"
#1246
0"
#1247
0(
b0 2
1"
#1248
0"
#1249
b1 2
1"
#1250
0"
#1251
b10 2
1"
#1252
0"
#1253
b11 2
1"
#1254
0"
#1255
b110 .
0%
b10111110 *
b10111110 /
b10111110 4
1(
b100 2
1"
#1256
0"
#1257
b101 2
1"
#1258
0"
#1259
b110 2
1"
#1260
0"
#1261
b111 2
1"
#1262
0"
0'
#1263
0(
b1000 2
1"
#1264
0"
#1265
b1001 2
1"
#1266
0"
#1267
b1010 2
1"
#1268
0"
#1269
b1011 2
1"
#1270
0"
#1271
b101 .
1(
b1100 2
1"
#1272
0"
#1273
b1101 2
1"
#1274
0"
#1275
b1110 2
1"
#1276
0"
#1277
b1111 2
1"
#1278
0"
#1279
0(
b0 2
1"
#1280
0"
#1281
b1 2
1"
#1282
0"
#1283
b10 2
1"
#1284
0"
#1285
b11 2
1"
#1286
0"
#1287
b100 .
1%
b10011110 *
b10011110 /
b10011110 4
1(
b100 2
1"
#1288
0"
#1289
b101 2
1"
#1290
0"
#1291
b110 2
1"
#1292
0"
#1293
b111 2
1"
#1294
0"
#1295
0(
b1000 2
1"
#1296
0"
#1297
b1001 2
1"
#1298
0"
#1299
b1010 2
1"
#1300
0"
#1301
b1011 2
1"
#1302
0"
1'
#1303
b11 .
1(
b1100 2
1"
#1304
0"
#1305
b1101 2
1"
#1306
0"
#1307
b1110 2
1"
#1308
0"
#1309
b1111 2
1"
#1310
0"
#1311
0(
b0 2
1"
#1312
0"
#1313
b1 2
1"
#1314
0"
#1315
b10 2
1"
#1316
0"
#1317
b11 2
1"
#1318
0"
#1319
b10 .
1(
b100 2
1"
#1320
0"
#1321
b101 2
1"
#1322
0"
#1323
b110 2
1"
#1324
0"
#1325
b111 2
1"
#1326
0"
#1327
0(
b1000 2
1"
#1328
0"
#1329
b1001 2
1"
#1330
0"
#1331
b1010 2
1"
#1332
0"
#1333
b1011 2
1"
#1334
0"
#1335
b1 .
1(
b1100 2
1"
#1336
0"
#1337
b1101 2
1"
#1338
0"
#1339
b1110 2
1"
#1340
0"
#1341
b1111 2
1"
#1342
0"
#1343
0(
b0 2
1"
#1344
0"
#1345
b1 2
1"
#1346
0"
#1347
b10 2
1"
#1348
0"
#1349
b11 2
1"
#1350
0"
#1351
b0 .
1(
b100 2
1"
#1352
0"
#1353
b101 2
1"
#1354
0"
#1355
b110 2
1"
#1356
0"
#1357
b111 2
1"
#1358
0"
#1359
0(
b1000 2
1"
#1360
0"
#1361
b1001 2
1"
#1362
0"
#1363
b1010 2
1"
#1364
0"
#1365
b1011 2
1"
#1366
0"
#1367
b1000 3
0%
b10011111 *
b10011111 /
b10011111 4
1(
b1100 2
1"
#1368
0"
#1369
b1101 2
1"
#1370
0"
#1371
b1110 2
1"
#1372
0"
#1373
b1111 2
1"
#1374
0"
#1375
0(
b0 2
1"
#1376
0"
#1377
b1 2
1"
#1378
0"
#1379
b10 2
1"
#1380
0"
#1381
b11 2
1"
#1382
0"
